{
    "/insertProduct":{
        "target" : "http://localhost:3000",
        "secure" : false,
        "changeOrigin" : true 
    },
    "/get_allProduct":{
        "target" : "http://localhost:3000",
        "secure" : false,
        "changeOrigin" : true 
    }
}